<svg width="132" height="150" xmlns="http://www.w3.org/2000/svg">
 <!-- Created with SVG-edit - http://svg-edit.googlecode.com/ -->
 <g>
  <title>Layer 1</title>
  <g transform="rotate(-90 65.06477355957033,75.81793212890625) " id="svg_11">
   <line stroke="#000000" transform="rotate(124.152587890625 27.63577651977539,37.31215667724609) " id="svg_5" y2="82.790964" x2="27.635777" y1="-8.166654" x1="27.635777" stroke-linecap="null" stroke-linejoin="null" stroke-dasharray="null" stroke-width="5" fill="#ff0000"/>
   <line stroke="#000000" transform="rotate(30 102.12953948974611,75.81793212890624) " id="svg_6" y2="151.817931" x2="102.129543" y1="-0.182069" x1="102.129543" stroke-linecap="null" stroke-linejoin="null" stroke-dasharray="null" stroke-width="5" fill="#ff0000"/>
   <line stroke="#000000" id="svg_8" transform="rotate(-30 27.21207427978508,75.69293212890622) " y2="149.527866" x2="27.212075" y1="1.857993" x1="27.212075" stroke-linecap="null" stroke-linejoin="null" stroke-dasharray="null" stroke-width="5" fill="#ff0000"/>
   <line stroke="#000000" id="svg_10" transform="rotate(-124.152587890625 101.4447021484375,38.282543182373054) " y2="83.347578" x2="101.444705" y1="-6.782498" x1="101.444705" stroke-linecap="null" stroke-linejoin="null" stroke-dasharray="null" stroke-width="5" fill="#ff0000"/>
  </g>
  <rect id="svg_33" height="0" width="3" y="-126.5" x="-383" fill-opacity="0" stroke-linecap="round" stroke-linejoin="null" stroke-dasharray="null" stroke-width="5" stroke="#000000" fill="#000000"/>
  <path d="m32,118.5c-1,0 -0.585787,1.585785 -2,3c-0.707108,0.707108 -1.617317,0.076118 -2,1c-0.541197,1.306564 -2.474268,1.149345 -3,2c-1.175571,1.902115 -1.693438,2.458801 -3,3c-0.92388,0.382683 -2,0 -2,1c0,2 -0.292892,2.292892 -1,3c-1.414213,1.414215 -1.292892,1.292892 -2,2c-0.707108,0.707108 -0.292892,1.292892 -1,2c-0.707107,0.707108 -1.292893,0.292892 -2,1c-1.414213,1.414215 -1,2 -1,3l-1,0l0,1" id="svg_39" stroke-linecap="round" stroke-linejoin="null" stroke-dasharray="null" stroke-width="5" stroke="#000000" fill="none"/>
  <path d="m68,91.5c0,1 -1.85273,1.173096 -3,2c-1.813992,1.307449 -4.310005,3.337494 -7,5c-2.406002,1.486992 -2.549156,3.95517 -6,5c-1.914185,0.579567 -2,2 -3,3c-1,1 -2,1 -2,2l-1,0l0,1" id="svg_40" stroke-linecap="round" stroke-linejoin="null" stroke-dasharray="null" stroke-width="5" stroke="#000000" fill="none"/>
  <path d="m32,124.5c-1,0 -2.292892,0.292892 -3,1c-1.414213,1.414215 -2.097887,1.824432 -4,3c-0.850651,0.525726 -1.292892,1.292892 -2,2c-1.414213,1.414215 -2.292892,0.292892 -3,1c-0.707108,0.707108 -1,1 -1,2c0,1 0.414213,1.585785 -1,3c-0.707108,0.707108 -1,1 -2,1c-1,0 -3,-1 -3,1c0,1 2,0 3,0c1,0 2.07612,0.38269 3,0c1.306562,-0.541199 3.097887,-1.824432 5,-3c0.850651,-0.525726 2.458803,0.306564 3,-1c0.382683,-0.923874 0.292892,-1.292892 1,-2c1.414213,-1.414215 2.693438,-1.458801 4,-2c0.923878,-0.38269 1.292892,-0.292892 2,-1c0.707108,-0.707108 0.693436,-2.458801 2,-3c0.923878,-0.382683 0.82375,-1.486259 3,-2c0.973248,-0.229752 1,-1 -1,0c-2,1 -3.292892,0.292892 -4,1c-0.707108,0.707108 -0.097885,1.824432 -2,3c-0.850651,0.525726 -2.617317,0.076126 -3,1c-0.541197,1.306564 -1.693438,1.458801 -3,2c-0.92388,0.38269 0.07612,-0.61731 1,-1c3.919689,-1.623581 6.85273,-3.173096 8,-4c1.813992,-1.307449 4,-1 5,-1l0,-1l0,-1" id="svg_41" stroke-linecap="round" stroke-linejoin="null" stroke-dasharray="null" stroke-width="5" stroke="#000000" fill="none"/>
  <path d="m64,100.5c-1,0 -3,2 -6,2c-3,0 -5.292892,2.707108 -6,2c-0.707108,-0.707108 0,-2 0,-3c0,-1 0,-3 0,-4c0,-1 -2,-1 -4,-1c-4,0 -12,0 -12,4c0,1 3,0 4,0l1,0l1,0" id="svg_42" stroke-linecap="round" stroke-linejoin="null" stroke-dasharray="null" stroke-width="5" stroke="#000000" fill="none"/>
  <path d="m40,103.5c0,1 -0.95517,2.549156 -2,6c-0.289783,0.957092 0,2 -1,3c-1,1 -1.149349,1.474266 -2,2c-1.902115,1.175568 -1,3 -2,3c-1,0 -0.693436,1.458801 -2,2c-1.847759,0.765366 -1.617317,-1.923882 -2,-1c-0.541197,1.306564 -2,1 -2,2c0,1 -0.292892,1.292892 -1,2c-1.414213,1.414215 -0.617317,2.076118 -1,3c-0.541197,1.306564 -2,1 -2,0l0,-2l0,-1" id="svg_43" stroke-linecap="round" stroke-linejoin="null" stroke-dasharray="null" stroke-width="5" stroke="#000000" fill="none"/>
  <path d="m58,110.5c0,-1 0.796997,-3.2565 2,-4c2.689995,-1.662506 3.824429,-1.097885 5,-3c0.525734,-0.850655 3.541199,-1.693436 3,-3c-0.382683,-0.923882 -3.08744,-0.206062 -8,2c-4.079662,1.832039 -8,1 -8,2c0,3 5,0 7,0c2,0 11.977341,-2.095444 16,-3c4.974792,-1.11866 5.823746,-3.486259 8,-4c2.919746,-0.689262 2,0 0,0c-2,0 -8.030441,2.806168 -15,4c-5.025822,0.860886 -6,2 -5,1c1,-1 3.641174,-1.550377 8,-4c4.694595,-2.638329 8,-4 7,-4c-1,0 -1,2 -2,3c-3,3 -3.847755,3.765366 -2,3c2.613129,-1.08239 11.116043,-4.155289 22,-12c1.14727,-0.826904 -0.014984,-1.24437 -2,-1c-4.092216,0.503777 -7,2 -15,4c-8,2 -17.506542,1.878555 -17,5c0.160183,0.987091 3.028191,0.106667 7,-1c13.102371,-3.650726 19,-5 19,-7c0,-1 -3,0 -7,1c-16,4 -25,5 -24,5c2,0 13.133377,3.022537 18,-4c0.569595,-0.821922 -1.412071,-2.031448 -5,0c-3.691948,2.090347 -14,0 -14,4c0,3 5.067997,0.635101 8,0c11.809181,-2.557976 12,-6 11,-6c-3,0 -5.020447,-0.494881 -11,0c-6.062038,0.501709 -13,1 -13,3c0,2 4.591404,0.783363 10,-2c1.257473,-0.647118 0.379253,0.74276 -3,2c-7.55624,2.811272 -9,2 -8,2c2,0 6,0 5,0c-3,0 -5,0 -9,0c-2,0 -1.414215,0.414215 0,-1c0.707108,-0.707108 1.292892,-0.292892 2,-1c1.414215,-1.414215 -0.707108,-3.292892 0,-4c0.707108,-0.707108 2.292892,-0.292892 3,-1c0.707108,-0.707108 0.292892,-2.292892 1,-3c1.414215,-1.414215 2,-2 2,-3c0,-1 1.292892,-0.292892 2,-1c0.707108,-0.707108 0.923878,-2.617317 0,-3c-1.306564,-0.541199 -3.292892,2.292892 -4,3c-2.121319,2.121323 -1,4 -1,5c0,1 -0.707108,2.292892 0,3c0.707108,0.707108 3,0 5,0c4,0 7.458805,-0.693436 8,-2c0.382683,-0.923882 0.974174,-2.320366 -1,-2c-3.121445,0.506538 -4.757111,3.986916 -11,5c-1.974174,0.320366 -1.813992,-1.692551 0,-3c1.14727,-0.826904 3.385098,-2.372017 6,-6c0.826904,-1.14727 3,-3 2,-3c-1,0 0.689259,3.080254 0,6c-0.513744,2.176254 -0.513744,-0.823746 0,-3c0.459507,-1.946495 -1.074203,-8.502449 4,-8c0.995132,0.098541 0,4 0,6c0,2 -2,5 -2,6l1,0" id="svg_44" stroke-linecap="round" stroke-linejoin="null" stroke-dasharray="null" stroke-width="5" stroke="#000000" fill="none"/>
  <path d="m31,119.5c0,-1 -0.707108,-3.292892 0,-4c0.707108,-0.707108 3,-3 1,-3c-2,0 0.076122,3.382683 1,3c1.306564,-0.541199 3.149349,-2.474266 4,-3c1.902115,-1.175568 0,-2 -2,-2c-1,0 -1.693436,0.458801 -3,1c-0.92388,0.382683 -2,3 -1,3c2,0 -0.707108,-3.292892 0,-4c0.707108,-0.707108 0.693438,-1.458801 2,-2c0.923878,-0.382683 0.292892,-1.292892 1,-2c1.414215,-1.414215 3,-2 4,-2l0,-1l1,-1l1,0" id="svg_45" stroke-linecap="round" stroke-linejoin="null" stroke-dasharray="null" stroke-width="5" stroke="#000000" fill="none"/>
  <path d="m29,120.5c-1,0 -1,-1 -1,-2c0,-2 0,-3 0,-4c0,-1 0.292892,-2.707108 1,-2c0.707108,0.707108 0,2 0,3c0,2 0.707108,0.707108 0,0c-0.707108,-0.707108 -3,-1 -3,-2c0,-1 1,-1 2,-1c1,0 2,0 4,0c5,0 8.277092,-0.228004 12,-2c4.514687,-2.148857 9.186008,-3.692551 11,-5c1.14727,-0.826904 2,-2 2,-3c0,-2 -0.292892,-2.292892 -1,-3c-0.707108,-0.707108 -1.693436,-1.458801 -3,-2c-1.847759,-0.765366 -3,0 -4,0c-2,0 -4.371346,1.746742 -7,6c-1.175571,1.902115 0.763931,1.236069 3,-1c2.236069,-2.236069 3,-5 2,-5c-1,0 0,4 0,6c0,1 -1,2 -1,0c0,-3 0,-5 0,-7c0,-1 -1.211674,-0.285881 -4,2c-1.09367,0.896599 -3.541195,2.693436 -3,4c0.382683,0.923882 1,-3 5,-7c1,-1 1,-2 1,-4c0,-1 0,-2 0,-3c0,-1 0,1 0,4c0,1 1.458805,1.693436 2,3c0.382683,0.923882 1.552788,2.105576 2,3c2.236069,4.472137 5,3 6,3c3,0 7,0 10,0c1,0 1,-1 -1,-1c-2,0 -7,0 -10,0c-1,0 -1.707108,-1.292892 -1,-2c0.707108,-0.707108 1.076122,-0.617317 2,-1c1.306564,-0.541199 -1.091488,-1.417854 -2,-1c-8.376076,3.852448 -8,9 -12,13c-2,2 -3.292892,3.292892 -4,4c-0.707108,0.707108 -0.289783,-0.042908 0,-1c2.089664,-6.901688 8,-8 9,-9c1,-1 0.760841,0.78653 -1,3c-5.873138,7.382835 -10,14 -9,14c2,0 2.190277,-3.881523 4,-7c2.244686,-3.867996 1.068375,-1.926598 0,-1c-3.777271,3.276009 -5,4 -5,3c0,-1 0.458805,-1.693436 1,-3c0.765366,-1.847755 0.459507,0.053505 0,2c-0.513744,2.176254 -4.549156,6.95517 -8,8c-0.957092,0.289787 2.025826,0.320366 4,0c3.121445,-0.506538 17.783806,-4.420059 21,-7c1.744228,-1.39917 -0.781132,-1.717186 -2,-1c-6.274513,3.691948 -14,4 -11,4c2,0 6,-1 5,-1c-1,0 -1,4 -3,4l1,0" id="svg_47" stroke-linecap="round" stroke-linejoin="null" stroke-dasharray="null" stroke-width="5" stroke="#000000" fill="none"/>
  <path d="m36,120.5c1,0 2.292892,-0.292892 3,-1c0.707108,-0.707108 3.038162,0.278297 7,-4c1.519295,-1.640656 2.585785,-3.414215 4,-2c0.707108,0.707108 0.581139,2.418861 -1,4c-1.581139,1.581139 -2,3 -3,3c-1,0 0.012913,0.160179 1,0c3.121445,-0.506538 5,-2 7,-3c2,-1 4,-2 5,-2c1,0 1.693436,-2.458801 3,-3c0.923878,-0.382683 1.47427,-0.149345 2,-1c1.175568,-1.902115 2,-2 3,-2c1,0 1.292892,-0.292892 2,-1c0.707108,-0.707108 1.292892,-0.292892 2,-1c1.414215,-1.414215 0.292892,-2.292892 1,-3c1.414215,-1.414215 2,-1 2,-2c0,-1 -1,-1 -3,0c-2,1 -7.888554,2.194092 -13,5c-3.9203,2.152031 -8.186008,2.692551 -10,4c-1.14727,0.826904 1,1 4,0c3,-1 15.127029,-5.678619 18,-7c5.297493,-2.436501 2.613129,-1.08239 0,0c-4.6194,1.913414 -11.232006,4.518295 -20,8c-4.739056,1.881844 -7,2 -6,2c2,0 6,-2 10,-4c4,-2 7,-4 9,-4c2,0 -0.236652,-0.943718 -2,0c-3.178925,1.701309 -7.802429,7.432884 -14,10c-2.921562,1.210152 -3,-1 -2,-2c1,-1 2,-2 2,-3l1,0l0,-1" id="svg_48" stroke-linecap="round" stroke-linejoin="null" stroke-dasharray="null" stroke-width="5" stroke="#000000" fill="none"/>
  <path d="m57,110.5c-2,0 -2,1 -2,2c0,1 -1,1 1,1c1,0 1.292892,-0.292892 2,-1c1.414215,-1.414215 0,-3 0,-4l-1,0" id="svg_49" stroke-linecap="round" stroke-linejoin="null" stroke-dasharray="null" stroke-width="5" stroke="#000000" fill="none"/>
  <path d="m69,70.5c0,2 -2.458801,4.693436 -3,6c-0.765366,1.847755 0,3 0,2c0,-2 -0.693436,-7.458801 -2,-8c-0.923878,-0.382683 -1.097885,0.824432 -3,2c-1.701302,1.05146 -1.292892,-1.292892 -2,-2c-0.707108,-0.707108 -2,0 -3,0c-1,0 -1,1 -1,2c0,2 0,3 0,1c0,-1 0,-2 0,-3c0,-1 -0.292892,-1.292892 -1,-2c-0.707108,-0.707108 -2.234634,-1.152245 -3,-3c-0.541195,-1.306564 -0.292892,-2.292892 -1,-3c-0.707108,-0.707108 -2,0 -2,-1c0,-1 0.707108,-2.292892 0,-3c-0.707108,-0.707108 -1.292892,-1.292892 -2,-2c-0.707108,-0.707108 -1,-1 -1,-2c0,-1 -0.292892,-1.292892 -1,-2c-1.414215,-1.414215 -2,-1 -3,-1c-1,0 -0.097885,-1.824429 -2,-3c-0.850651,-0.52573 -0.693436,-1.458805 -2,-2c-0.923878,-0.382683 -0.47427,-1.149349 -1,-2c-1.175571,-1.902115 -4.622484,-2.830578 -3,-4c2.565372,-1.849018 3.824429,1.097885 5,3c0.52573,0.850651 1.458805,0.693436 2,2c0.382683,0.923878 0.82375,1.486256 3,2c0.973248,0.229752 0.292892,2.292892 1,3c0.707108,0.707108 1.292892,1.292892 2,2c1.414215,1.414215 2.824429,0.097885 4,2c0.52573,0.850651 3.298698,2.948536 5,4c1.902115,1.175571 2.103405,3.90633 3,5c2.285881,2.788322 3.458805,2.693436 4,4c0.382683,0.923882 1.458805,0.693436 2,2c0.382683,0.923882 -0.692547,0.813995 -2,-1c-2.480717,-3.441811 -5,-4 -5,-5c0,-1 -1.458805,-0.693436 -2,-2c-0.382683,-0.923878 1.565372,-4.150982 -1,-6c-0.811241,-0.584709 -2.693436,-2.541195 -4,-2c-0.923878,0.382683 -1.414215,2.585785 0,4c1.414215,1.414215 1.692547,1.186008 3,3c0.826904,1.14727 2,3 1,3c-1,0 -1,-1 -3,-1c-1,0 -0.292892,-1.292892 -1,-2c-0.707108,-0.707108 -2,0 -2,-1c0,-1 -1,-1 -2,-1c-1,0 -2.585785,-0.585785 -4,-2c-0.707108,-0.707108 -1.458805,-0.693436 -2,-2c-0.382683,-0.923878 -0.707108,-2.292892 0,-3c2.121319,-2.121319 4.152241,-0.765366 6,0c1.306564,0.541195 2,2 4,3c2,1 3.186008,3.692547 5,5c1.14727,0.826904 3.377514,2.830578 5,4c2.565372,1.849014 2,4 3,5c1,1 3.513008,1.593994 5,4c1.662506,2.689995 3,4 4,5c1,1 2.585785,0.585785 4,2c0.707108,0.707108 1,3 2,3l0,1" id="svg_50" stroke-linecap="round" stroke-linejoin="null" stroke-dasharray="null" stroke-width="5" stroke="#000000" fill="none"/>
  <path d="m59,67.5c0,0 -0.692547,-0.186005 -2,-2c-0.826904,-1.14727 -1.292892,-1.292892 -2,-2c-0.707108,-0.707108 -0.707108,-1.707108 0,-1c0.707108,0.707108 -0.414215,2.585785 1,4c0.707108,0.707108 0.292892,1.292892 1,2c0.707108,0.707108 1.923878,1.617317 1,2c-1.306564,0.541199 -1.256504,-1.796997 -2,-3c-1.662506,-2.689995 -4,-5 -4,-6c0,-1 -1.292892,-1.707108 -2,-1c-0.707108,0.707108 0,2 0,3c0,1 -0.382683,3.076118 0,4c0.541195,1.306564 3,1 3,2c0,1 1,1 -1,1c-1,0 -2,0 -2,-1c0,-1 -2,-2 -2,-4c0,-1 -1.458805,-1.693436 -2,-3c-0.382683,-0.923878 -2,-2 -2,-3c0,-2 0,-3 0,-4l-1,0" id="svg_51" stroke-linecap="round" stroke-linejoin="null" stroke-dasharray="null" stroke-width="5" stroke="#000000" fill="none"/>
  <path d="m65,102.5c1,0 1,-1 2,-2c1,-1 1.693436,-1.458801 3,-2c0.923882,-0.382683 3.149345,-0.474266 4,-1c1.902115,-1.175568 1.693436,-2.458801 3,-3c0.923882,-0.382683 -0.097885,1.824432 -2,3c-4.253258,2.628654 -5,3 -4,3c2,0 3,0 4,0c1,0 1.707108,-0.707108 1,0c-0.707108,0.707108 -1.707108,1.292892 -1,2c0.707108,0.707108 2.292892,0.707108 3,0c0.707108,-0.707108 1,-1 1,-2c0,-1 1.585785,0.414215 3,-1c0.707108,-0.707108 0,-2 1,-2c1,0 0.292892,-2.292892 1,-3c0.707108,-0.707108 2.458801,0.306564 3,-1c0.382683,-0.923882 1,-1 3,-1c1,0 1.292892,-0.292892 2,-1c0.707108,-0.707108 2.458801,-0.693436 3,-2c0.765366,-1.847755 1,-2 1,-3c0,-1 0.186005,-1.692551 2,-3c1.14727,-0.826904 2,-2 3,-4l1,-1" id="svg_52" stroke-linecap="round" stroke-linejoin="null" stroke-dasharray="null" stroke-width="5" stroke="#000000" fill="none"/>
  <path d="m56,80.5c0,-1 0,-2 0,-3c0,-1 2,-2 2,-4c0,-1 2,-3 1,-3c-1,0 1.051464,2.298698 0,4c-1.175571,1.902115 -2.292892,2.707108 -3,2c-0.707108,-0.707108 1,-3 -1,-3c-1,0 0,2 0,3c0,2 -2.121319,3.878677 0,6c0.707108,0.707108 3,0 4,0c2,0 5.298691,0.178925 7,-3c0.471855,-0.881676 1.710213,-2.957092 2,-2c1.04483,3.450844 -4.415291,5.188759 -5,6c-1.849018,2.565376 -1.465076,1.689247 0,0c2.07193,-2.388954 3.097885,-6.824432 5,-8c0.850655,-0.525734 2,-2 2,-1c0,2 0.614906,4.372017 -2,8c-2.480713,3.441811 -5.765366,3.847755 -5,2c0.541195,-1.306564 3.91761,-3.386871 5,-6c0.382683,-0.923882 0.957092,-2.289787 0,-2c-3.450844,1.04483 -4.85273,7.826904 -6,7c-1.813992,-1.307449 3.934143,-3.144295 6,-4c2.921562,-1.210152 3.617317,-2.076118 4,-3c0.541199,-1.306564 0,-1 -1,0c-3,3 -5.973251,6.229752 -5,6c2.176254,-0.513741 7.647499,-3.972511 12,-5c0.973251,-0.229752 0.065857,0.144295 -2,1c-2.921562,1.210152 -8.617317,4.923882 -9,4c-0.541199,-1.306564 2.960167,-2.083984 5,-3c4.91256,-2.206062 6.973251,-2.229752 6,-2c-2.176254,0.513741 -7.712006,5.981628 -13,7c-0.981956,0.18911 0.080254,0.689262 3,0c2.176254,-0.513741 7.133003,-2.569504 11,-4c2.097176,-0.775795 3.847755,-2.765366 2,-2c-2.613129,1.08239 -3.647499,4.972511 -8,6c-0.973251,0.229752 0.080254,0.689262 3,0c2.176254,-0.513741 3.937965,-3.498291 10,-4c1.993187,-0.164963 2,-1 0,-1c-2,0 -5.053505,2.540497 -7,3c-4.352501,1.027489 -6,3 -4,3c1,0 2.702507,-1.563499 8,-4c2.872971,-1.321381 4.07193,-1.388954 2,1c-1.465073,1.689247 -9,2 -9,4c0,1 5.067001,0.513336 7,0c7.792168,-2.069321 9,-4 8,-4c-2,0 -3.596931,0.999832 -10,3c-6.749428,2.10836 -11,3 -10,3c2,0 4.345078,0.081268 9,-2c4.564529,-2.040848 4.973251,-3.229752 4,-3c-2.176254,0.513741 -6.549156,3.95517 -10,5c-0.957092,0.289787 0.036087,0.378212 2,0c5.287994,-1.018372 9.292892,-4.292892 10,-5c0.707108,-0.707108 0,1 -2,2c-2,1 -5.150986,1.434624 -7,4c-0.584709,0.811241 2.053505,1.459503 4,1c4.352501,-1.027489 9.712006,-2.981628 15,-4c2.945869,-0.567322 3.973251,-0.229752 3,0c-2.176254,0.513741 -14.018372,0.712006 -13,6c0.18911,0.981956 3.152245,0.765366 5,0c1.306564,-0.541199 3,-2 2,-2c-2,0 0,4 -1,4c-2,0 -2.292892,0.292892 -3,1c-0.707108,0.707108 -1,0 -1,-2c0,-2 -0.707108,-3.292892 0,-4c0.707108,-0.707108 1.824432,-0.097885 3,-2c0.525734,-0.850655 2,-1 4,-1c1,0 -0.121323,-0.878677 2,-3c1.414215,-1.414215 4.080254,-0.310738 7,-1c2.176254,-0.513741 3,-1 2,-1l-2,3l-7,0l-3,1" id="svg_53" stroke-linecap="round" stroke-linejoin="null" stroke-dasharray="null" stroke-width="5" stroke="#000000" fill="none"/>
  <path d="m94,90.5c0,-2 1.026749,-2.770248 2,-3c2.176254,-0.513741 3.292892,-1.292892 4,-2c0.707108,-0.707108 1.617317,-2.923882 2,-2c0.541199,1.306564 -2.310005,1.337494 -5,3c-1.203003,0.7435 -1.292892,3.292892 -2,4c-0.707108,0.707108 -2.707108,0.292892 -2,1c0.707108,0.707108 2,0 3,0c2,0 2.292892,-0.292892 3,-1c0.707108,-0.707108 1.292892,-2.292892 2,-3c0.707108,-0.707108 0,-2 1,-2c2,0 1.823746,-1.486259 4,-2c0.973251,-0.229752 2.292892,0.707108 3,0c0.707108,-0.707108 1.292892,-0.292892 2,-1c1.414215,-1.414215 1.292892,-1.292892 2,-2c0.707108,-0.707108 2,-1 3,-1c1,0 1,-1 2,-1c1,0 1,-1 2,-1c1,0 1.585785,0.414215 3,-1c0.707108,-0.707108 0,-2 -1,-2c-1,0 -4.085815,-0.420433 -6,-1c-3.450844,-1.04483 -4.292892,-1.292892 -5,-2c-0.707108,-0.707108 -1.292892,-0.292892 -2,-1c-0.707108,-0.707108 -1,-1 -2,-1c-2,0 -3,0 -4,0c-1,0 -2,0 -3,0c-3,0 -3.823746,-0.486259 -6,-1c-0.973251,-0.229752 -2,0 -3,0c-2,0 -2,1 -2,2c0,2 1,2 3,2c1,0 4,0 6,0c2,0 3,0 4,0c2,0 6.292892,-0.707108 7,0c0.707108,0.707108 1.292892,0.292892 2,1c0.707108,0.707108 0,2 0,3c0,1 0,2 -1,2c-1,0 -3.298698,-0.05146 -5,1c-1.902115,1.175568 -2,2 -3,2c-1,0 -0.292892,1.292892 -1,2c-0.707108,0.707108 -0.292892,1.292892 -1,2c-0.707108,0.707108 -0.923882,1.382683 0,1c1.306564,-0.541199 4.611046,-1.92807 7,-4c1.689247,-1.465073 2.292892,-2.292892 3,-3c0.707108,-0.707108 0.292892,-1.292892 1,-2c0.707108,-0.707108 2,0 2,-1c0,-1 0,-2 2,-2c1,0 -1,0 -2,0c-2,0 -3.292892,0.292892 -4,1c-0.707108,0.707108 -1.292892,0.292892 -2,1c-1.414215,1.414215 -2.823746,1.486259 -5,2c-0.973251,0.229752 -3.585785,-0.414215 -5,1c-1.414215,1.414215 -2,1 -2,2c0,3 5.041321,0.152771 9,-1c3.036163,-0.884132 4.292892,-1.707108 5,-1c1.414215,1.414215 -1.712006,2.981628 -7,4c-5.891739,1.134644 -9,0 -10,0c-1,0 0.076118,0.382683 1,0c6.532814,-2.705978 2.914185,-5.579567 1,-5c-6.901688,2.089661 -8.707108,5.292892 -8,6c1.414215,1.414215 4.207832,-2.930679 12,-5c0.966499,-0.256668 -1.014984,-0.24437 -3,0c-8.184425,1.007545 -15,2 -15,1c0,-1 -0.969536,-2.250717 0,-4c4.573296,-8.251358 15.17157,-9.82843 18,-7c0.707108,0.707108 -1.824432,3.097885 -3,5c-0.525734,0.850655 1,1 3,1c4,0 3.176254,1.486259 1,2c-8.759239,2.06778 -13,0 -11,0c3,0 18.503777,3.092216 18,-1c-0.24437,-1.985016 -4,0 -17,0c-6,0 -9.382683,-0.076118 -9,-1c0.541199,-1.306564 8,-3 13,-3c1,0 -1,0 -3,0c-10,0 -16.985016,0.24437 -15,0c4.092216,-0.503777 15.503777,2.092216 15,-2c-0.122185,-0.992508 -3,0 -11,0c-8,0 -11.973251,0.229752 -11,0c2.176254,-0.513741 12,2 12,-1c0,-1 -10,-7 -10,0c0,3 5.878677,-2.121323 8,0c0.707108,0.707108 0.662506,2.310005 -1,5c-0.7435,1.203003 -2,1 -2,-1c0,-1 -1.292892,-1.707108 -2,-1c-1.414215,1.414215 2,2 4,2c1,0 6,0 13,0c6,0 9,0 9,1c0,1 0.525734,2.149345 0,3c-1.175568,1.902115 -6.386871,2.91761 -9,4c-0.923882,0.382683 -0.541199,-0.693436 0,-2c0.382683,-0.923882 0,-2 0,-3c0,-1 -2.08744,-1.793938 -7,-4c-2.039833,-0.916016 -8.041321,-1.847229 -12,-3c-3.036163,-0.884132 -4,-1 -4,-2c0,-1 6,-1 13,-1c5,0 8,0 7,0c-2,0 -5.946724,-2.498741 -13,-3c-5.984909,-0.425331 -8,0 -7,0c2,0 24,3 24,0c0,-1 -3,0 -15,0c-5,0 -7.014984,0.24437 -9,0c-12.276642,-1.511322 -14,-4 -13,-4c2,0 9,0 14,0c2,0 3,0 4,0c2,0 1,0 -1,0c-9,0 -12,0 -11,0c1,0 7,0 8,0c1,0 0.118477,-0.190277 -3,-2c-3.867996,-2.244686 -5,-3 -4,-3c1,0 7,0 6,0c-2,0 -5,-1 -7,-1c-3,0 -4,0 -2,0c1,0 9,1 9,0c0,-3 -4,0 -11,-2l-1,0" id="svg_54" stroke-linecap="round" stroke-linejoin="null" stroke-dasharray="null" stroke-width="5" stroke="#000000" fill="none"/>
  <path d="m103,87.5c0,-1 1.458801,-0.693436 2,-2c0.382683,-0.923882 -0.823746,-0.513741 -3,0c-1.946495,0.459503 -4,1 -3,1c1,0 2.076118,0.382683 3,0c1.306564,-0.541199 2.292892,-0.292892 3,-1c0.707108,-0.707108 1.585785,0.414215 3,-1c1.414215,-1.414215 1.458801,-1.693436 2,-3c0.382683,-0.923882 1.458801,-1.693436 2,-3c0.382683,-0.923882 1,-1 1,-2c0,-1 1,-1 1,-3c0,-1 0.382683,-2.076118 0,-3c-0.541199,-1.306564 -3.549156,-1.95517 -7,-3c-0.957092,-0.289787 -2,0 -1,0l2,0l1,0l1,0" id="svg_55" stroke-linecap="round" stroke-linejoin="null" stroke-dasharray="null" stroke-width="5" stroke="#000000" fill="none"/>
  <path d="m69,63.5c-2,0 -3.076118,-1.617317 -4,-2c-1.306564,-0.541195 -2.415291,-2.188759 -3,-3c-1.849018,-2.565372 -6.824429,-3.097885 -8,-5c-0.52573,-0.850651 1,-1 2,-1c1,0 2.418861,0.418861 4,2c1.581139,1.581139 1,3 -1,3c-2,0 -3.585785,1.414215 -5,0c-1.414215,-1.414215 1.076122,-2.382683 2,-2c1.306564,0.541195 1.228363,0.851952 4,2c1.306564,0.541195 4.372017,1.385098 8,4c3.441811,2.480717 5.821075,7.701309 9,6c0.881676,-0.471855 -0.186005,-3.692547 -2,-5c-1.14727,-0.826904 1,-1 2,-1c1,0 3,0 4,0c1,0 4.91761,0.386875 6,3c0.382683,0.923882 1.292892,0.292892 2,1c0.707108,0.707108 1.228363,0.851952 4,2c1.306564,0.541199 1.292892,1.292892 2,2c0.707108,0.707108 2,0 3,0c1,0 3,0 4,0c1,0 2.292892,-0.707108 3,0c0.707108,0.707108 0.097885,1.824432 2,3c1.701302,1.05146 4.076118,-0.382683 5,0c1.306564,0.541199 1,2 2,2c1,0 2,0 1,0c-1,0 -2.076118,0.382683 -3,0c-1.306564,-0.541199 -1.868286,-3.288589 -6,-5c-2.921562,-1.210152 -6.026749,-2.770248 -7,-3c-2.176254,-0.513741 -3.085815,-2.420433 -5,-3c-3.450844,-1.04483 -1,-2 1,-2c1,0 2,0 2,1c0,2 1.292892,1.292892 2,2c0.707108,0.707108 2,1 3,1c1,0 3.414215,-0.585785 2,-2c-1.414215,-1.414215 -5.076118,-1.617317 -6,-2c-1.306564,-0.541195 -3.026749,-1.770248 -4,-2c-2.176254,-0.513744 -2.693436,-1.458805 -4,-2c-0.923882,-0.382683 -3.211678,0.285881 -6,-2c-1.093674,-0.896595 -2.076118,-0.617317 -3,-1c-1.306564,-0.541195 -1.796997,-1.256504 -3,-2c-2.689995,-1.662506 -4.693436,-2.458805 -6,-3c-0.923882,-0.382683 -3.541199,0.306564 -3,-1c0.382683,-0.923878 2,0 3,0c1,0 1,1 2,1c2,0 2,1 3,1c1,0 0.823746,1.486256 3,2c0.973251,0.229752 1.617317,0.076122 2,1c0.541199,1.306564 3.149345,0.47427 4,1c1.902115,1.175571 1,3 2,3c1,0 1.292892,0.292892 2,1c0.707108,0.707108 0,2 -1,2c-2,0 -5,0 -7,0c-1,0 -5,-1 -5,0c0,1 2.292892,0.707108 3,0c0.707108,-0.707108 -1.152245,-2.234634 -3,-3c-3.919685,-1.623589 -6.585785,-3.585785 -8,-5c-0.707108,-0.707108 2,-1 4,-1c3,0 6.902824,1.224205 9,2c3.866997,1.430496 9,6 9,4c0,-2 -4,0 -7,0c-1,0 -2,0 -3,0c-1,0 -2,0 -3,0c-1,0 -3,0 -5,0c-2,0 -4,0 -7,0c-1,0 0,0 2,0c1,0 3,0 4,0c2,0 4,0 2,0c-2,0 -9,-5 -12,-6c-3,-1 -2.923878,0.617317 -2,1c2.613125,1.082394 3.292892,3.292892 4,4c0.707108,0.707108 -2,1 -5,1c-2,0 -3,0 -2,0c3,0 7,0 12,0c2,0 3,0 3,-2c0,-1 -2,-3 -6,-5c-4,-2 -8,-5 -10,-5c-2,0 -1.973248,-1.229752 -1,-1c2.17625,0.513744 6.186008,3.692547 8,5c1.14727,0.826904 -1.051651,1.640728 -5,1c-9.364334,-1.519623 -16,-7 -16,-5c0,2 4.310005,0.337494 7,2c2.406002,1.486992 3.693436,2.458805 5,3c1.847759,0.765366 3,1 1,1c-1,0 -4.372013,-2.385098 -8,-5c-1.14727,-0.826904 -2,-1 -3,-2c-1,-1 0.053501,-1.459507 2,-1c2.17625,0.513744 2.388954,3.07193 0,1c-1.689247,-1.465076 -5.186008,-5.692547 -7,-7c-1.14727,-0.826904 -1.52573,0.149349 -1,1c1.175571,1.902115 1,1 0,1c-1,0 -1.292892,-0.292892 -2,-1c-0.707108,-0.707108 -2.076122,0.382683 -3,0c-1.306562,-0.541195 -3.824429,-1.097885 -5,-3c-0.525732,-0.850651 0,-2 0,-4c0,-1 -0.585787,-1.585787 -2,-3c-1.414213,-1.414213 -1.292892,-2.707108 -2,-2c-0.707108,0.707108 -0.707108,2.292892 0,3c0.707108,0.707108 1.770247,0.026751 2,1c0.513742,2.17625 1.617317,2.076122 2,3c0.541197,1.306564 2.097887,1.824429 4,3c0.850651,0.52573 2,0 3,1c1,1 2.47427,1.850651 3,1c1.175571,-1.902115 -2.346191,-2.70546 -4,-5c-1.307453,-1.813993 -1.902115,-0.175571 0,1c1.701302,1.051464 6.796265,1.16124 10,5c1.432755,1.716743 0.14727,0.826904 -1,0c-1.813992,-1.307453 -0.946499,-1.459507 1,-1c2.17625,0.513744 7,4 10,5c3,1 4.076122,1.617317 5,2c1.306564,0.541195 2,1 0,1c-2,0 -8.066002,-2.877659 -10,-4c-3.118477,-1.809723 -6.541195,-2.693436 -6,-4c0.382683,-0.923878 2,1 5,4c1,1 3.076122,1.617317 4,2c1.306564,0.541195 1.82375,1.486256 4,2c0.973248,0.229752 -1,0 -3,0c-2,0 0.198921,2.532368 3,4c4.428898,2.320534 5,4 8,5l0,2" id="svg_56" stroke-linecap="round" stroke-linejoin="null" stroke-dasharray="null" stroke-width="5" stroke="#000000" fill="none"/>
  <path d="m114,73.5c0,1 0,2 1,2c1,0 2,0 -1,0l-2,0l-4,1l-9,0" id="svg_57" stroke-linecap="round" stroke-linejoin="null" stroke-dasharray="null" stroke-width="5" stroke="#000000" fill="none"/>
  <path d="m70,58.5c-1,-2 -2.292892,-2.292892 -3,-3c-1.414215,-1.414215 -2,-2 -2,-3c0,-1 -1,-2 1,-2c1,0 2,0 3,0c2,0 2,-1 2,-3c0,-3 -1.186005,-3.692547 -3,-5c-1.14727,-0.826904 -3.076118,-2.617317 -4,-3c-1.306564,-0.541195 -0.707108,0.292892 0,1c0.707108,0.707108 3.186005,1.692547 5,3c1.14727,0.826904 1.292892,1.292892 2,2c0.707108,0.707108 2,0 1,0c-1,0 -2,0 -3,0c-1,0 -4,-3 -4,-1c0,1 2.014984,-0.244366 4,0c4.092216,0.503773 6.692551,2.186008 8,4c0.826904,1.14727 0.645485,0.514061 -1,-1c-3.962845,-3.646347 -12.186008,-4.692547 -14,-6c-2.29454,-1.653809 -5,-7 -5,-4c0,1 2.039848,-0.076015 4,1c5.111443,2.805908 5.292892,3.292892 6,4c0.707108,0.707108 -2,1 -3,1c-2,0 -3.847759,-1.765366 -2,-1c1.306564,0.541195 4.076118,1.617317 5,2c1.306564,0.541195 3.541199,0.693436 3,2c-0.765366,1.847759 -3.0718,0.308754 -8,-1c-3.056339,-0.811657 -5,-1 -4,-1c1,0 2.228363,-1.148048 5,0c1.306564,0.541195 4.541199,0.693436 4,2c-0.765366,1.847759 -2.85273,-1.173096 -4,-2c-3.627987,-2.614902 -4.585785,-3.585785 -6,-5c-1.414215,-1.414215 -0.946499,-0.459507 1,0c2.17625,0.513744 2.693436,1.458805 4,2c0.923878,0.382683 2,0 0,0c-2,0 -8.127098,-1.925907 -11,-7c-0.492699,-0.870201 -0.52573,1.149349 0,2c1.175571,1.902115 3.149349,1.47427 4,2c1.902115,1.175571 3,2 2,2c-2,0 -4.592869,-0.106262 -11,-5c-2.247768,-1.716839 -1.585785,-2.585785 -3,-4c-1.414215,-1.414213 -0.065857,0.144295 2,1c2.921562,1.210152 6,3 8,4c2,1 1.923878,2.382683 1,2c-1.306564,-0.541195 -4.549156,-3.95517 -8,-5c-0.957092,-0.289783 -1.22298,-0.642719 -3,-2c-4.052223,-3.095072 -6.796997,-1.256504 -8,-2c-2.689995,-1.662508 -3.919746,-1.689259 -1,-1c2.17625,0.513742 2.152241,1.234632 4,2c2.613125,1.082392 4,5 4,3c0,-2 -3.118324,0.471859 -4,0c-3.178925,-1.701307 -6.513742,-2.82375 -6,-5c0.229752,-0.973249 2.053501,-0.459505 4,0c2.17625,0.513742 4,3 4,2c0,-2 -3.931625,-1.073404 -5,-2c-3.777269,-3.276009 -5.306562,-2.541197 -4,-2c2.771637,1.14805 4.693436,1.458803 6,2c0.923878,0.382683 3,1 3,0c0,-2 -2.714119,-0.211676 -5,-3c-3.586382,-4.374683 -4,-5 -4,-3c0,2 2.292892,2.292892 3,3c0.707108,0.707108 1.076122,0.617317 2,1c1.306564,0.541197 2,2 3,2c1,0 4.506542,-1.121445 4,2c-0.480545,2.961262 -4.386875,-0.917608 -7,-2c-0.923878,-0.382683 -2,0 0,0c2,0 4.541195,0.693438 4,2c-0.765366,1.847759 -3.714119,-1.211676 -6,-4c-3.586382,-4.374683 -4.292892,-5.292892 -5,-6c-0.707108,-0.707108 -1.210152,1.078436 0,4c0.855705,2.065857 4,4 3,4c-2,0 -4.255774,-0.60083 -6,-2c-3.216194,-2.579941 -4,-4 -5,-4c-1,0 0,0 1,0c1,0 4,5 5,4c1,-1 -2.714121,-1.211676 -5,-4c-0.896595,-1.093672 -2,-2 -1,-2c1,0 1.617317,1.07612 2,2c1.082392,2.613127 0.76335,0.943716 -1,0c-3.178923,-1.701307 -4.850651,-5.474268 -4,-6c1.902113,-1.17557 3.292892,1.292892 4,2c0.707108,0.707108 -1.292892,1.707108 -2,1c-0.707108,-0.707108 -1.528143,-2.118326 -2,-3c-1.701307,-3.178923 -3.07612,-2.617316 -4,-3c-1.306563,-0.541196 -1.693437,-1.458804 -3,-2c-0.92388,-0.382684 0.07612,-0.382684 1,0c1.306563,0.541196 1.256583,3.418861 6,5c0.948683,0.316227 2,2 3,2c1,0 0.693438,1.458803 2,2c1.847759,0.765368 2.292892,1.292892 3,2c0.707108,0.707108 1,2 2,2c1,0 2,1 2,2l1,1l0,1" id="svg_58" stroke-linecap="round" stroke-linejoin="null" stroke-dasharray="null" stroke-width="5" stroke="#000000" fill="none"/>
  <path d="m27,22.5c0,-1 -1,-2 -2,-3l-2,0l0,-1" id="svg_59" stroke-linecap="round" stroke-linejoin="null" stroke-dasharray="null" stroke-width="5" stroke="#000000" fill="none"/>
 </g>
</svg>